%YAML 1.1
%TAG !u! tag:unity3d.com,2011:
--- !u!114 &11400000
MonoBehaviour:
  m_ObjectHideFlags: 0
  m_CorrespondingSourceObject: {fileID: 0}
  m_PrefabInstance: {fileID: 0}
  m_PrefabAsset: {fileID: 0}
  m_GameObject: {fileID: 0}
  m_Enabled: 1
  m_EditorHideFlags: 0
  m_Script: {fileID: 11500000, guid: 968714d5d09c43dcaafa9b23d5a0971a, type: 3}
  m_Name: rock
  m_EditorClassIdentifier: 
  _key: rock
  _entityType: 3
  _sprite: {fileID: 21300000, guid: 90f97065af4d04fe3aa881f2ea2233bb, type: 3}
  _prefab: {fileID: 4596467524843219016, guid: cf04a0235106049dd97ca78457aaef75, type: 3}
