%YAML 1.1
%TAG !u! tag:unity3d.com,2011:
--- !u!114 &11400000
MonoBehaviour:
  m_ObjectHideFlags: 0
  m_CorrespondingSourceObject: {fileID: 0}
  m_PrefabInstance: {fileID: 0}
  m_PrefabAsset: {fileID: 0}
  m_GameObject: {fileID: 0}
  m_Enabled: 1
  m_EditorHideFlags: 0
  m_Script: {fileID: 11500000, guid: 6a5e10e0bf4ca5343a986a099bf06aad, type: 3}
  m_Name: Screen Prefab Map
  m_EditorClassIdentifier: 
  _screens:
  - {fileID: 7219110215558716773, guid: b66679f130249483389159e9d3cab4dc, type: 3}
  - {fileID: 1283755159002456394, guid: 91160fb1774774b38a13107f68db57a0, type: 3}
