%YAML 1.1
%TAG !u! tag:unity3d.com,2011:
--- !u!114 &11400000
MonoBehaviour:
  m_ObjectHideFlags: 0
  m_CorrespondingSourceObject: {fileID: 0}
  m_PrefabInstance: {fileID: 0}
  m_PrefabAsset: {fileID: 0}
  m_GameObject: {fileID: 0}
  m_Enabled: 1
  m_EditorHideFlags: 0
  m_Script: {fileID: 11500000, guid: 8e9e50e5de804c3abd60cbc13625a4b9, type: 3}
  m_Name: entity_config
  m_EditorClassIdentifier: 
  _movementTime: 0.191
  _takingDamageAnimationTime: 0.13
  _betweenAnimationsGap: 0.05
